8
0 0 5.97177749118915e-05
0 1 -1.72589710241245e-04
0 2 2.14083957942271e-04
0 3 2.44031434906203e-05
0 4 5.30497368976483e-04
0 5 -4.07879041032849e-05
0 6 -1.49000193294288e-03
0 7 1.11734638825699e-04
1 0 -6.38347690036134e-03
1 1 6.41552409092327e-07
1 2 -5.34594991471672e-04
1 3 2.14382590539387e-03
1 4 -1.80757815485332e-03
1 5 7.00621046677805e-03
1 6 -8.35648054336225e-03
1 7 -7.18720813252747e-04
2 0 5.54804236724810e-03
2 1 3.79926361655001e-04
2 2 1.53805098671690e-04
2 3 -1.09882607191393e-03
2 4 1.81419996147331e-03
2 5 -8.16171803710101e-03
2 6 6.33511552922883e-03
2 7 3.56756359614647e-04
3 0 -1.75036315214747e-04
3 1 2.56060332768152e-04
3 2 -2.44096184257778e-04
3 3 8.89173433595013e-05
3 4 -1.67100891273270e-04
3 5 -2.56472062082801e-04
3 6 -6.89533867920965e-04
3 7 -1.63463860652316e-04
4 0 -4.48978983956790e-04
4 1 1.46311159468775e-03
4 2 -1.06009221747890e-03
4 3 3.63210215129848e-04
4 4 -5.38321381621106e-05
4 5 1.98082847753396e-04
4 6 2.72035079482260e-04
4 7 -2.28327749573226e-05
5 0 8.62579627324692e-03
5 1 2.16944806743864e-03
5 2 1.97780882497543e-03
5 3 -6.96878295300753e-03
5 4 -7.34357945007544e-05
5 5 -2.08943994576249e-03
5 6 1.77246534003389e-03
5 7 7.73086592737607e-04
6 0 8.35879938349723e-03
6 1 2.71310974256548e-03
6 2 1.97696795886996e-03
6 3 -5.93024603095438e-03
6 4 -1.97297040210378e-04
6 5 -1.64528351128652e-03
6 6 1.93734114960478e-03
6 7 7.07664351493976e-04
7 0 2.82873038169679e-04
7 1 -5.62130760848025e-04
7 2 5.23132495314877e-04
7 3 1.19641956944164e-05
7 4 1.11703164773064e-05
7 5 -1.44943398493082e-04
7 6 1.87998430559395e-04
7 7 1.31038232362641e-05
